module micro-go

go 1.14

require (
	github.com/360EntSecGroup-Skylar/excelize/v2 v2.2.0
	github.com/afex/hystrix-go v0.0.0-20180502004556-fa1af6a1f4f5
	github.com/aliyun/alibaba-cloud-sdk-go v0.0.0-20190808125512-07798873deee
	github.com/dreamlu/gt v1.8.7
	github.com/gin-gonic/gin v1.6.3
	github.com/gogo/protobuf v1.2.2-0.20190723190241-65acae22fc9d // indirect
	github.com/gopherjs/gopherjs v0.0.0-20181103185306-d547d1d9531e // indirect
	github.com/hashicorp/go-rootcerts v1.0.1 // indirect
	github.com/hashicorp/go-sockaddr v1.0.2 // indirect
	github.com/hashicorp/memberlist v0.1.5 // indirect
	github.com/medivhzhan/weapp v1.5.1
	github.com/micro/go-micro/v2 v2.5.0
	github.com/micro/go-plugins/registry/consul/v2 v2.5.0
	github.com/micro/go-plugins/wrapper/monitoring/prometheus/v2 v2.5.0
	github.com/micro/micro/v2 v2.5.0
	github.com/pascaldekloe/goe v0.1.0 // indirect
	github.com/robfig/cron/v3 v3.0.0
	github.com/skip2/go-qrcode v0.0.0-20200526175731-7ac0b40b2038
	gopkg.in/square/go-jose.v2 v2.3.1
)
